\babel@toc {english}{}
\contentsline {section}{Acknowledgement}{3}{chapter*.2}
\contentsline {chapter}{\numberline {1}What Happens when you Plugin your Computer and press THE BUTTON!}{4}{chapter.1}
\contentsline {section}{\numberline {1.1}Introduction}{4}{section.1.1}
\contentsline {section}{\numberline {1.2}Intel-based (IA\IeC {\textendash }32) startup}{6}{section.1.2}
\contentsline {section}{\numberline {1.3}Brief Linux Boot}{9}{section.1.3}
\contentsline {subsection}{\numberline {1.3.1}BIOS}{9}{subsection.1.3.1}
\contentsline {subsection}{\numberline {1.3.2}MBR}{9}{subsection.1.3.2}
\contentsline {subsection}{\numberline {1.3.3}GRUB}{9}{subsection.1.3.3}
\contentsline {subsection}{\numberline {1.3.4}Kernel}{10}{subsection.1.3.4}
\contentsline {subsection}{\numberline {1.3.5}Init}{10}{subsection.1.3.5}
\contentsline {section}{\numberline {1.4}Runlevel programs}{11}{section.1.4}
\contentsline {section}{\numberline {1.5}Good-bye, BIOS. Hello UEFI}{11}{section.1.5}
\contentsline {chapter}{\numberline {2}Driver}{13}{chapter.2}
\contentsline {section}{\numberline {2.1}Of drivers and Buses}{13}{section.2.1}
\contentsline {section}{\numberline {2.2}Drivers have two parts}{14}{section.2.2}
\contentsline {section}{\numberline {2.3}Verticals}{14}{section.2.3}
\contentsline {section}{\numberline {2.4}Multiple-vertical interfacing drivers}{16}{section.2.4}
\contentsline {chapter}{\numberline {3}File Systems}{17}{chapter.3}
\contentsline {section}{\numberline {3.1}Part 1}{17}{section.3.1}
\contentsline {section}{\numberline {3.2}Part 2}{21}{section.3.2}
\contentsline {section}{\numberline {3.3}Part 3}{26}{section.3.3}
\contentsline {section}{\numberline {3.4}Part 4}{31}{section.3.4}
\contentsline {section}{\numberline {3.5}Part 5}{34}{section.3.5}
\contentsline {section}{\numberline {3.6}Part 5}{40}{section.3.6}
\contentsline {chapter}{\numberline {4}Reference}{47}{chapter.4}
